Assignment 1
…
Preprocessing

Trips: transform dates into timestamps (note: in Python, you will have to coerce errors for faulty dates)

trips %<>%
  mutate(date_end_time= as.numeric(as.POSIXct(date_end, format="%Y-%m-%d")), date_start_time=as.numeric(as.POSIXct(date_start, format="%Y-%m-%d")))

## Warning: One or more parsing issues, see `problems()` for details

trips

## # A tibble: 46,510 x 13
##     ...1 username         country   country_code country_slug date_end   date_start
##    <dbl> <chr>            <chr>     <chr>        <chr>        <date>     <date>    
##  1     0 @lewellenmichael Mexico    MX           mexico       2018-06-15 2018-06-04
##  2     1 @lewellenmichael Mexico    MX           mexico       2018-06-03 2018-05-31
##  3     2 @lewellenmichael Mexico    MX           mexico       2017-11-05 2017-11-01
##  4     3 @lewellenmichael Jordan    JO           jordan       2017-08-07 2017-07-24
##  5     4 @waylandchin     China     CN           china        2017-03-18 2017-02-17
##  6     5 @waylandchin     Vietnam   VN           vietnam      2017-02-16 2016-09-02
##  7     6 @waylandchin     Hong Kong HK           hong-kong    2016-09-01 2016-08-02
##  8     7 @waylandchin     China     CN           china        2016-08-02 2016-07-31
##  9     8 @waylandchin     China     CN           china        2016-07-31 2016-07-03
## 10     9 @waylandchin     China     CN           china        2016-07-03 2016-06-03
## # ... with 46,500 more rows, and 6 more variables: latitude <dbl>,
## #   longitude <dbl>, place <chr>, place_slug <chr>, date_end_time <dbl>,
## #   date_start_time <dbl>
…
To get the results we first filtered in the education_raw category by strings containing "Master's Degree". Afterwards we arranged by followers in descending order, so that the top result will be the person with most followers. Thereafter we write the "head(1)" function which excludes all results not in the top of the list. In the end we use the select function to exclude the ID of the person, because this is not relevant. The result shows us, that the person with the most followers is @levelsio. He has 2182 followers. He follows 353. He is a software Dev, a startup founder and a creative. Furthermore he has a high school diploma, a bachelor's degree and a master's degree.

Trips

Which country received the highest number of trips?  And which the lowest?

trips  %>%
  count(country, sort =TRUE) %>%
  filter(n %in% c(min(n), max(n)))

## # A tibble: 54 x 2
##    country           n
##    <chr>         <int>
##  1 United States  6539
##  2 180 40            1
##  3 45230             1
##  4 630 72            1
##  5 671 03            1
##  6 847 00            1
##  7 AB30              1
##  8 Abkhazia          1
##  9 AD100             1
## 10 Algeria           1
## # ... with 44 more rows
…
